{
    "data": {
        "endRow": 4,
        "firstPage": 1,
        "hasNextPage": true,
        "hasPreviousPage": false,
        "isFirstPage": true,
        "isLastPage": false,
        "lastPage": 8,
        "list": [
            {
                "createBy": "813254863063351296",
                "createTime": 1492056143000,
                "detail": "",
                "fileName": "W020170327390150009240",
                "id": "852371360356237312",
                "isEnable": true,
                "isIndexShow": true,
                "isInformationShow": true,
                "resourceId": "852371345822973952",
                "remark": "",
                "source": "丝集网",
                "summary": "中国丝绸，复兴之路如何走",
                "sysInformationClassId": "800656422655229952",
                "sysInformationClassName": "行业动态",
                "title": "资讯 |中国丝绸，复兴之路如何走",
                "updateBy": "",
                "updateTime": null,
                "version": null
            },
            {
                "createBy": "813254863063351296",
                "createTime": 1492055888000,
                "detail": "",
                "fileName": "W020170410412086402817",
                "id": "852370290368315392",
                "isEnable": true,
                "isIndexShow": true,
                "isInformationShow": true,
                "resourceId": "852370285389676544",
                "remark": "",
                "source": "丝集网",
                "summary": "不简单的桑叶",
                "sysInformationClassId": "800656374169075712",
                "sysInformationClassName": "丝绸文化",
                "title": "丝绸文化 | 不简单的桑叶",
                "updateBy": "",
                "updateTime": null,
                "version": null
            },
            {
                "createBy": "812202173147381760",
                "createTime": 1492055169000,
                "detail": "",
                "fileName": "build",
                "id": "852367276890914816",
                "isEnable": true,
                "isIndexShow": true,
                "isInformationShow": true,
                "resourceId": "852365535332007936",
                "remark": "",
                "source": "苏杭首战女装广场公众号",
                "summary": "上有天堂，下有苏杭，杭州四季青苏杭服装市场毗邻秀丽的西子湖，位于“中国服装第一街”核心区域——江干区杭海路43号。苏杭首站不忘初心，秉持中国传统文化的“匠心”精神，注重原产、原创，汇集今典丝绸、世纪蓝天、红灯笼、曼妮杰尔、丝路凤凰、思宝琦、丽人一身、盖世红颜、缘纳艳丽（排名不分先后）等江浙沪120余家大型真丝厂家，打造专属苏杭首站的品牌集群优势，成为推动杭州丝绸产业发展的领航者。",
                "sysInformationClassId": "828815473733795840",
                "sysInformationClassName": "苏杭首站",
                "title": "春花烂漫 相聚苏杭 ——苏杭首站丝绸服装火爆登场",
                "updateBy": "",
                "updateTime": null,
                "version": null
            },
            {
                "createBy": "812202173147381760",
                "createTime": 1492054257000,
                "detail": "",
                "fileName": "1",
                "id": "852363449559154688",
                "isEnable": true,
                "isIndexShow": true,
                "isInformationShow": true,
                "resourceId": "852362948939612160",
                "remark": "",
                "source": "苏杭首战女装广场公众号",
                "summary": "走过往昔，奋斗的场景历历在目，\n回首展望，开心的笑容不断蔓延，\n携手共进，成功的荣耀一路高歌，\n展望未来，前行的路上与您相伴。",
                "sysInformationClassId": "828815473733795840",
                "sysInformationClassName": "苏杭首站",
                "title": "苏杭首站因你们而精彩，你们因苏杭首站而荣耀",
                "updateBy": "",
                "updateTime": null,
                "version": null
            }
        ],
        "navigatePages": 8,
        "navigatepageNums": [
            1,
            2,
            3,
            4,
            5,
            6,
            7,
            8
        ],
        "nextPage": 2,
        "orderBy": "",
        "pageNum": 1,
        "pageSize": 4,
        "pages": 26,
        "prePage": 0,
        "size": 4,
        "startRow": 1,
        "total": 102
    },
    "httpCode": 200,
    "msg": "OK",
    "timestamp": 1492062635378
}