{
    "data": {
        "endRow": 10,
        "firstPage": 1,
        "hasNextPage": true,
        "hasPreviousPage": false,
        "isFirstPage": true,
        "isLastPage": false,
        "lastPage": 8,
        "list": [
            {
                "createBy": "813254863063351296",
                "createTime": 1491807261000,
                "detail": "<h1>中国丝绸协会杨永元会长谈丝绸产业发展</h1><p>中国丝绸数千年的历史文化，从诞生开始便注定是一场与众不同的旅程，承载着古老的中国痕迹，丝绸作为中国的名片发展至今，产业生态已逐步被重新定义，传统的销售渠道，传统的管理模式在互联网的冲击下慢慢升级。</p><p>数据显示，2016年，我国丝绸出口市场中前五位依次为欧盟、美国、印度、东盟、巴基斯坦，超过总出口额的60%。然而由于缺乏知名品牌，我国丝绸还停留在产业链前端，出口持续萎缩，远未实现其应有的经济和文化价值。2016年，我国丝绸商品贸易总额31.21亿美元，其中出口29.22亿美元，延续了“十二五”时期的下降趋势。2016年全国茧丝绸行业营业额达884亿元，较上年增长4%。</p><p>　　中国丝绸协会会长杨永元介绍，2016年，我国丝绸行业在科技进步、文化礼品、国际化发展、文化保护和丝绸小镇建设等方面有不少亮点，但当前行业仍存在外贸形势不乐观、原料质量“短板”依旧凸显等问题。</p><p>　　杨永元表示，当前，我国许多沿海城市大量土地转化为城镇和工业开发区，年轻人从事桑蚕养殖积极性不高，种桑养蚕的数量开始逐渐萎缩。如何推进茧丝绸行业的技术进步，稳定茧丝绸原料基础，平衡茧、丝、绸产业链上下游利益，是今天摆在我国丝绸行业面前的一个课题。</p><p>　　目前，在我国丝绸出口品类中，丝类和真丝绸缎在出口额中各占两成，丝绸制成品占比六成，分布相对均衡。但在杨永元看来，世界丝绸行业的生产格局正在发生变化，以意大利、日本等国为代表的高端丝绸产品生产向中国转移，以中国香港地区为代表的丝绸服装生产向内地转移。“世界要求中国不再只是提供中间产品，而是要提供终端商品，这为我国的丝绸行业带来了重大的挑战和机遇。”杨永元说。</p><p>　　日前发布的《茧丝绸行业“十三五”发展纲要》提出，未来五年，要形成10个以上具有国际影响的名企名品，提升中国丝绸在国际市场的话语权和知名度，努力打造中国茧丝绸产业链的国际竞争力。</p><p>　　杨永元认为，现代市场的多样化需求使得丝绸企业不得不思考如何获得长足发展，而这其中最重要的就是用文化引领丝绸企业树立品牌文化。</p><p>　　“如果我们在丝绸家纺、丝针织、头巾、领带、礼服、女装、混纺产品等方面都拥有知名品牌，形成多足鼎立，那么丝绸业的发展一定能再上一个台阶。”杨永元强调，在未来一段时间内，全力打造知名丝绸服装品牌将是行业发展的重要任务和目标。</p><p>　　杨永元说，2017年将加快调整丝绸产品结构，坚持科技创新驱动行业发展，以“一带一路”沿线国家为重点方向促进对外深层次合作，以传统丝绸高等院校为主加快人才培养，形成实用技能型、创新型、复合型等多层次的丝绸人才培育体系。</p><p>&nbsp;</p><p>丝集网正是看到了产业的痛点，迎合国家的发展纲要，孕育而生，我们要运用互联网的先进技术手段，带动丝绸行业的产业链发展，弘扬中国的丝绸文化，集合丝绸家纺、丝针织、头巾、领带、礼服、女装等多品类的成品服饰，以及面料，生丝，整合上下游供应链，打造中国丝绸生态服务平台，为中国丝绸开辟新的方向</p><p><br></p>",
                "fileName": "微信图片_20170410134311",
                "id": "851327474317918208",
                "isEnable": true,
                "isIndexShow": true,
                "isInformationShow": true,
                "pic": "851327776836288512",
                "remark": "",
                "source": "丝集网",
                "summary": "中国丝绸协会杨永元会长谈丝绸产业发展",
                "sysInformationClassId": "800656422655229952",
                "sysInformationClassName": "行业动态",
                "title": "中国丝绸协会杨永元会长谈丝绸产业发展",
                "updateBy": "813254863063351296",
                "updateTime": null,
                "version": null
            },
            {
                "createBy": "813254863063351296",
                "createTime": 1491717093000,
                "detail": "<p style=\"text-align: center; \"><img src=\"http://118.178.95.106:8090/File/download?id=850949261687259136\" alt=\"Cgqg2lVxfpSAO5aqAAKob4xnicI818\" style=\"max-width:100%;\"><br></p><p>在“逆全球化”暗流涌动的当下，中国坚定支持经济全球化和跨区域合作。以“一带一路”倡议为代表的中国方案，凭借其“开放、包容、均衡、普惠”的独特魅力，赢得了国际社会广泛赞誉。“一带一路”倡议也成为海外专家学者谈及本届中国两会时最感兴趣的话题之一。</p><p>俄罗斯科学院远东研究所所长谢尔盖·卢贾宁认为，“一带一路”是一个世界级的倡议，它能引导好经济全球化，消解全球化的负面影响，更好地惠及每个国家、每个民族。在上世纪90年代，全球化主要通过西方的方式实现，如今中国为世界增加了“中国选项”。而且它不会强加于人，不以谋求政治报偿为目的，这就使同中国开展经贸合作极具吸引力。</p><p>埃及《金字塔报》报业集团董事长艾哈迈德·赛义德·纳贾尔，同时也是著名的经济学家。他告诉新华社记者，中国的发展“将对国与国之间的关系带来深刻变革”。他说，“一带一路”的意义不仅在于恢复这两条重要的古代商道，更传达了这样一个理念，即世界各国无论大小强弱，均可通过公平贸易实现和平发展。他期待“一带一路”倡议促成更多政策出台、更多项目落地，造福更多国家人民。</p><p>巴西里约热内卢州立大学国际关系系主任马里西奥·桑托罗认为，“一带一路”将中国内陆省份与中亚、中东、南亚甚至更远的地方贯通起来，既带动中国内陆省份发展，又增加了全球经济发展的活力，是对贸易保护主义有力的回击，其起到的带动作用也让广大发展中国家找到新的合作道路。</p><p>新加坡南洋理工大学拉惹勒南国际研究院副教授李明江认为，目前全球经济增长疲软，“一带一路”可以发掘沿线国家的经济潜力，带动参与国经济发展。从长远来看，落实“一带一路”倡议的过程伴随着基础设施建设，这真正从物理上实现了国家地区间的互联互通，为沿线国家未来几十年的发展打下良好基础。</p><p>曼伊卡·坎盖伊是津巴布韦知名学者，长期从事中非和中津贸易研究，曾出版《可以改变非洲的“中国十课”》。坎盖伊在评价“一带一路”倡议时说，中国正在用实际行动告诉其贸易伙伴，推进全球化对双方来说是双赢的。随着亚吉铁路（亚的斯亚贝巴-吉布提）、蒙内铁路（蒙巴萨-内罗毕）等重大基础设施工程的陆续完成，中国未来在非洲扮演的角色将越来越重要。非洲很多国家会受益于更好的基础设施，而中国也将获得一个更大的市场。</p><p>吉尔吉斯斯坦政治学专家巴克图古洛夫认为，中国的“一带一路”倡议或将成为世界各国合作的一种新哲学，成为大国和小国之间平等合作的新哲学，成为个人与个人和谐发展的新哲学。</p><p>意大利共产党党中央委员弗朗切斯科·马利尼奥在两会召开前夕接受新华社记者采访，盛赞中国对世界经济的贡献。他认为，“一带一路”对欧洲和中亚等地都是一个非凡的机会，并表示希望意大利能成为“一带一路”重要节点。他说，除了给沿线各国带来巨大的经济和商业价值外，这一倡议还有助于地区稳定。</p><p>俄罗斯著名智库“瓦尔代”俱乐部研究规划主任雅罗斯拉夫·利索沃利克认为，中国通过保持自身的开放性，加强与其他国家的经贸合作，正在维护国际市场开放性和提高全球经济增速方面成为一股重要力量。随着“一带一路”建设稳步推进，中国将在发展国际贸易、为区域经济一体化制定规则、充分发挥国际经济组织的作用等方面进一步发挥其重要作用。</p><p>（原标题：综述：“一带一路”促共赢 立足长远惠世界——海外专家学者评两会）</p>",
                "fileName": "Cgqg2lVxfpSAO5aqAAKob4xnicI818",
                "id": "850949281027194880",
                "isEnable": true,
                "isIndexShow": true,
                "isInformationShow": true,
                "pic": "850949224538308608",
                "remark": "",
                "source": "丝集网",
                "summary": "“一带一路”海外热议：中国方案促共赢 立足长远惠世界",
                "sysInformationClassId": "800656422655229952",
                "sysInformationClassName": "行业动态",
                "title": "“一带一路”海外热议：中国方案促共赢 立足长远惠世界",
                "updateBy": "",
                "updateTime": null,
                "version": null
            },
            {
                "createBy": "813254863063351296",
                "createTime": 1491534440000,
                "detail": "<p style=\"text-align: center; \"><img src=\"http://118.178.95.106:8090/File/download?id=850183139937484800\" alt=\"mp16392148_1432612029941_1_th\" style=\"max-width:100%;\"><br></p><p>从来没有夕阳的产业，服装业也是如此。面临激烈竞争和爬坡转型压力，中国服装业正在破茧成蝶，努力革新自身面貌，引领消费、改变生活，向富含文化内涵、生活理念、科技制造的时尚产业迈进。</p><p>　　从中国服装到中国时尚，还要走多久?在此间举行的中国服装论坛和中国国际时装周上，企业家、设计师和市场分析人士等汇聚一堂，展开头脑风暴。</p><p>　　新设计：把文化“穿”身上</p><p>　　根植于生活的服装业，脱离不开文化的浸润。将衣服做出名堂，不仅要有国际化的理念，更要突出东方文化与生活方式的特点，只有将两者巧妙融合，才能成为市场上的强者。</p><p>　　时装周上，一场名为“生活在左”的发布引起众人的关注。一曲唱腔开场，身着改良中装的模特款款出场。精致的刺绣、淡雅的色彩，辅之以贴合身体的剪裁和大胆的配饰，让这样的服装既拥有东方的精巧神秘，又不失西方的大气简约。</p><p>　　“生活在左”所属的女装品牌茵曼创始人方建华说，企业要把视角扩展到生活，用全新理念做时装。</p><p>　　服装企业家认为，随着消费结构的升级，消费者对产品的文化认同至关重要。这里不仅有对传统文化的传承，也有对新生代文化的理解和包容。</p><p>　　“跟上时尚，才有可能引领时尚，了解新市场需求。”女装品牌歌力思董事长夏国新在论坛上说，一些新晋潮牌之所以能逆势而上，是得益于抓住新生代的文化。</p><p>　　当前，包括太平鸟(36.610, -0.09, -0.25%)等在内的诸多国内服装企业陆续创立了年轻化、潮流化的品牌，“迎合”追求新鲜感和喜欢社交媒体的“千禧一代”。一个更轻更快更酷的时尚时代已经到来。</p><p>　　新消费：寻求线上和线下的融合</p><p>　　做好时尚产业，不仅要在设计上下功夫，销售渠道、生产服务模式的突破，也都需要进一步的转型升级。</p><p>　　“要创造与消费者连接的新价值点。比如，借助移动社交发布流行趋势，和消费者进行精准对接与服务。”中国纺织工业联合会会长孙瑞哲说。</p><p>　　当前，国内服装品牌越来越倾向于直面消费者的沟通方式。不少品牌缩减了代理商、加盟商和百货渠道，加大电商平台布局。在时装周期间，邀请网红走秀、观展也成为新趋势。</p><p>　　值得一提的是，越来越多的品牌开始寻求线上和线下的融合，把线上销售和线下服务有机结合起来。时装周上，包括京东服装在内的多场服装发布，通过扫描秀场二维码等方式实现了“即秀即买”。</p><p>　　内衣品牌爱慕董事长张荣明说，他一直在思考如何通过线上线下的协同，既弥补电商购物无法试穿的缺憾，又增加百货选衣的趣味性和精准性。目前，爱慕正在规划开设科技型生活馆。在这里，可以通过机器互动，VR看秀等方式，给消费者带来更多体验。</p><p>　　此外，共享模式正在服装业试水，酝酿着一场新变革。如整合行业闲置资源，实现产能共享;创建产业平台，实现创意共享;通过服装租赁和回收利用实现产品共享等。</p><p>　　新思维：用创新呵护“美丽经济”</p><p>　　时尚本身就是对新事物的捕捉。做好时尚产业，也需要始终保持创新的思维和开拓的决心。</p><p>　　“创始人的认知边界就是企业的边界，也是产业的边界。”柔性供应链服务平台链尚网创始人赵俊浩说，做企业，最关键是要有新的思维，把变化变为机会，把风险变为风采。</p><p>　　“如果连续两年对一个问题的判断是一致的，那么我就落伍了。”在张荣明看来，从引进工业互联网、构建智慧仓储，到研发可以监测心率的内衣，正是一个个新想法推动爱慕从制造企业转型为时尚集团。</p><p>　　签约网红的营销模式源于茵曼创始人方建华的一个设想;从卖服装到创办文化空间，女装品牌例外董事长毛继鸿把视角扩展到生活的多个方面……纵观服装业可以发现，企业家们纷纷用新思维重建与消费者的连接，重构新的商业逻辑。</p><p>　　除了企业本身，行业也在集成合力探寻更加多元的创新和突破。时装周期间，中国设计师协会与哈勃智慧云联合发起的全球设计师合伙人计划启动，旨在用互联网将全球设计师资源结合起来，为设计师提供供应链服务，为品牌挑选合适的设计师。中国服装设计师协会主席张庆辉说，这个智能协同平台将开启全新的商业合作模式，加快时尚落地。</p><p>　　“要以创新为基石，炼就品牌发展新动力，推动服装业向时尚产业的转变，开创中国时尚经济的新时代。”孙瑞哲说。</p>",
                "fileName": "mp16392148_1432612029941_1_th",
                "id": "850183182220263424",
                "isEnable": true,
                "isIndexShow": true,
                "isInformationShow": true,
                "pic": "850183098380320768",
                "remark": "",
                "source": "丝集网",
                "summary": "从中国服装到中国时尚，还要走多久？",
                "sysInformationClassId": "800656422655229952",
                "sysInformationClassName": "行业动态",
                "title": "从中国服装到中国时尚，还要走多久？",
                "updateBy": "",
                "updateTime": null,
                "version": null
            },
            {
                "createBy": "813254863063351296",
                "createTime": 1491534318000,
                "detail": "<p style=\"text-align: center; \"><img src=\"http://118.178.95.106:8090/File/download?id=850182654425825280\" alt=\"14912HHGNF-13D8\" style=\"max-width:100%;\"><br></p><p>&nbsp;2017年春，南充再次确定将“千年丝绸韵”与“嘉陵江山情”、“三国文化源”作为南充的三大文化旅游品牌。围绕这三大品牌，南充将深入推进旅游“双百亿工程”，在全市22个重大旅游项目建设中完成投资近100亿元，力争全年旅游项目招商引资签约金额100亿元。与此同时，作为南充“千年丝绸韵”载体的六合丝博园景区，也正式启动国家4A级景区的创建工作。南充丝绸文化从工业到旅游的延伸，同时也承载着南充留存丝绸文化实体的雄心。</p><p>千年底韵，丝绸文化凝聚岁月沧桑</p><p>&nbsp;&nbsp;&nbsp; 养蚕纺丝历经五千多年，贯穿了华夏从远古传说到有文字记载的所有历史。甲骨文中有明确的蚕丝文字，商周时代有了管理织造的官员，商代墓葬的青铜器上也覆盖有丝绸残片。更早的新石器时代，华夏先民就学会了养蚕纺丝。</p><p>&nbsp;&nbsp;&nbsp; 从今天回溯丝绸的起源，无论是民间传说还是考古文献，都充满了浪漫的想象。</p><p>&nbsp;&nbsp;&nbsp; 远古时期，西陵氏族的嫘祖从掉落在煮汤陶罐的蚕茧得到蚕丝。她发现用轻细柔韧的织网捕鱼、纺织衣服很好用。为了多抽些，她开始养蚕，并且教会其他人也学会养蚕抽丝。嫘祖嫁给黄帝，伴随着轩辕氏族的迁徙、扩张，她发明的养蚕纺丝之术也在嘉陵江畔流传不断。</p><p>&nbsp;&nbsp;&nbsp; 夏禹时期，禹王召集诸侯大会，嘉陵江流域巴人制作的玉帛就享誉四方。西汉时期，南充丝绸成为朝廷贡品。到隋、唐、两宋，“顺庆大绸”饮誉京城畅销丝绸之路，南充丝绸名品果州红绫“享天宝物华之誉，胜苏杭品质之优”，不但是华夏皇室贡品，还远销日本，成为当时日本皇室的国宝。</p><p>&nbsp;&nbsp;&nbsp; 几千年来以嘉陵江流域为原点，形成了以丝绸贸易为主的南北丝绸之路。丝绸纺织技术流传世界，丝绸纺织成为世界各地的产业，然而最好的丝绸织品、最深厚的丝绸文化，依然沉淀在嘉陵江畔。“丝绸之城”南充一直是中国乃至世界丝绸产业链上的一颗明珠。</p><p>百年产业，细小蚕丝也是抗战力量</p><p>&nbsp;&nbsp;&nbsp; 都京镇，得名于“都井”。清初，大量外来人口迁移至此，挖井起名都井，后来渐渐演变为地名。1912年，西充人傅骏山投资白银万两，在都京镇开办兴隆丝厂，后改名为六合丝厂，是为南充丝二厂年，由此拉开了南充丝绸文化景区六合丝博园的历史。</p><p>&nbsp;&nbsp;&nbsp; 兴隆丝厂首开近代南充境内用机器缫丝织绸的先河，当时年产值近2万银币。1926年，六合丝厂缫制的“金鹿”牌蚕丝荣获巴拿马国际博览会金奖，再一次将南充丝绸推向了世界丝绸业的巅峰。而都京镇渐成为南充丝绸工业中心。</p><p>&nbsp;&nbsp;&nbsp; 抗战时期，山东、江浙沦陷，当地丝绸老板不愿当亡国奴，纷纷迁厂于内地，都京镇就是这些内迁工厂的重要安置地之一。当时，中国丝绸80%产于四川，而南充丝二厂又占四川丝绸产业的50%。国家靠这些丝绸换取外币，用外汇购买飞机、大炮等抗战武器。民国政府为表彰六合集团的丰功伟绩，奖美式吉普车一辆，甚至派重兵保护其正常生产。</p><p>&nbsp;&nbsp;&nbsp; 都京镇可以说是中国近代丝绸产业的宝地。珍贵的历史文化，也让都京镇成为南充丝绸文化旅游的主要目的地。</p><p>亚洲第一，丝绸产值曾占南充半壁</p><p>&nbsp;&nbsp;&nbsp; 作为“蚕桑之乡”、“丝绸之城”的南充，在新中国成立以来，一直是中国四大蚕茧、丝绸生产出口基地之一，是四川最大的丝绸工业中心。</p><p>&nbsp;&nbsp;&nbsp; 1978年全国工业经济迅速复苏，南充丝二厂年产值9000万元左右，1990年突破亿元大关。生产规模在当时不仅是中国第一，甚至堪称亚洲第一。职工最多时上万人，被称为亚洲最大的“万人工厂”，南充市农业收入一半来自栽桑养蚕，4个城里人就有2个人吃丝绸饭。南充工业的半壁江山属于丝绸产业。</p><p>&nbsp;&nbsp;&nbsp; “天上取样人间织，满城皆闻机杼声”!南充已经成为中国西部地区蚕茧、丝绸生产规模最大、丝绸产品最丰富的城市，也是西部桑蚕种、茧丝绸、科研教学最集中的地区。2005年，南充被评为“中国绸都”和“中国蚕丝绸生产基地”。</p><p>从工业到旅游，南充赋予丝绸文化新内涵</p><p>&nbsp;&nbsp;&nbsp; 进入21世纪，丝绸产业带给南充的已经不只是工业产值，更有深厚的丝绸文化。南充丝绸已是时尚名品，每年9月的南充丝绸节成为闻名全国的盛会。而古旧的老厂如同百年丝绸产业的活化石。如何在发展丝绸产业的同时保留这些珍贵记忆，成为摆在南充人面前的问题。</p><p>&nbsp;&nbsp;&nbsp; 旅游业带给了南充答案。从丝绸产业衍生出工业旅游，并从博物馆体验提升为丝绸文化全生态体验。南充计划以丝绸文化寻根之旅，打造特色丝绸小镇、“绸都”南充文化旅游品牌。</p><p>&nbsp;&nbsp;&nbsp; 借鉴北京“798文化创意园”，南充计划用5年时间，在都京投资50亿元，以存续时间最长、百年丝绸名企六合集团的历史遗存为核心，打造一个集“产业、文化、旅游、生态、丝绸小镇”为一体的丝绸文化产业园。这里最终将形成集设计制作、旅游休闲等功能于一体的产业集群，同时形成年接待游客将超过200万人次，实现销售收入500亿元的“绸都”南充文化旅游品牌。</p><p>&nbsp;&nbsp;&nbsp; 丝绸文化产业园第一期的核心工程六合丝博园在2015年开建，2016年开业。经过数年的寻踪论证，“丝绸源点”牌匾也于2016年最终落子南充丝绸文化产业园内的都京特色丝绸小镇。</p><p>&nbsp;&nbsp;&nbsp; 2017年，六合丝博园开启创建国家4A级景区的征程。该项目成功后，将让南充丝绸文化寻根之旅有了一个国家级4A景区的龙头，从而带动丝绸文化相关的旅游、购物、度假、影视等相关的产业。丝绸文化将成为南充的综合型文化大品牌，并成为促进南充旅游发展的主要动力之一。</p><p><br></p>",
                "fileName": "14912HHGNF-13D8",
                "id": "850182668137005056",
                "isEnable": true,
                "isIndexShow": true,
                "isInformationShow": true,
                "pic": "850182582392848384",
                "remark": "",
                "source": "丝集网",
                "summary": "千年丝韵百年产业 丝绸文化旅游在南充发芽",
                "sysInformationClassId": "800656422655229952",
                "sysInformationClassName": "行业动态",
                "title": "千年丝韵百年产业 丝绸文化旅游在南充发芽",
                "updateBy": "",
                "updateTime": null,
                "version": null
            },
            {
                "createBy": "813254863063351296",
                "createTime": 1491527899000,
                "detail": "<div style=\"text-align: center;\"><img src=\"http://118.178.95.106:8090/File/download?id=850155610732232704\" alt=\"640\" style=\"max-width:100%;\"><br></div><p>明代是中国手工艺极度发达的时代，承继宋代优良基础的刺绣，顺应时代热烈风气，继续蓬勃昌盛，而且更上层楼。</p><p>明代刺绣工艺也表现了多项特色：</p><p>一是用途方面，广用流行社会各阶层，制作无所不有，与后来的清代，成为中国历史上刺绣流行风气最盛的时期;</p><p>二是绣艺方面，一般实用绣作，品质普遍提高，材料改进精良，技巧娴熟洗练，而且趋向迥异宋代的繁缛华丽的风尚;艺术绣作，承袭宋绣优秀传统下，能够推陈出新有新发明，特别是明代已经出现以刺绣专业的鸣世家族和个人如有名的「露香园」绣，为上海顾家所创，发明绘画刺绣结合的「绣画」作品风靡至清不歇;这种刺绣家纷然崛起广受社会推崇的风气，也以明末清初最盛。</p><p>三是衍生其它绣类方面，刺绣原本仅以丝线为材料，明代开始有人尝试利用别的素材，于是有透绣、发绣、纸绣、贴 绒绣、 戳纱绣、平 金绣等出现，大大扩张了刺绣艺术的范畴。</p><p>明代刺绣以洒线绣最为新颖突出。洒线绣用双股捻线计数，按方孔纱的纱孔绣制，以几何纹为主，或配以铺绒主花。洒线绣是纳线的前身，属北方绣种，以定陵出土明孝靖皇后洒线绣蹙金龙百子戏女夹衣为例，它用三股线、绒线、捻线、包梗线、孔雀羽线、花夹线6种线、12种针法制成，是明代刺绣的精品。属北方绣系的还有山东鲁绣、衣线绣和辑线绣。</p><p style=\"text-align: center; \"><img src=\"http://118.178.95.106:8090/File/download?id=850155731029065728\" alt=\"640\" style=\"max-width:100%;\"><br></p><p><br></p>",
                "fileName": "640.webp (1)",
                "id": "850155745293893632",
                "isEnable": true,
                "isIndexShow": true,
                "isInformationShow": true,
                "pic": "850155873765425152",
                "remark": "",
                "source": "丝集网",
                "summary": "明清时代的手工艺—绣包",
                "sysInformationClassId": "800656422655229952",
                "sysInformationClassName": "行业动态",
                "title": "探索明清时代的手工艺—绣包",
                "updateBy": "813254863063351296",
                "updateTime": null,
                "version": null
            },
            {
                "createBy": "813254863063351296",
                "createTime": 1491447439000,
                "detail": "<div style=\"text-align: center;\"><img src=\"http://118.178.95.106:8090/File/download?id=849817938725699584\" alt=\"640\" style=\"max-width:100%;\"><br></div><p>数据显示，2016年，我国丝绸出口市场中前五位依次为欧盟、美国、印度、东盟、巴基斯坦，超过总出口额的60%。然而由于缺乏知名品牌，我国丝绸还停留在产业链前端，出口持续萎缩，远未实现其应有的经济和文化价值。2016年，我国丝绸商品贸易总额31.21亿美元，其中出口29.22亿美元，延续了“十二五”时期的下降趋势。2016年全国茧丝绸行业营业额达884亿元，较上年增长4%。</p><p style=\"text-align: center; \"><img src=\"http://118.178.95.106:8090/File/download?id=849818014315446272\" alt=\"640\" style=\"max-width:100%;\"><br></p><p>中国丝绸协会会长杨永元介绍，2016年，我国丝绸行业在科技进步、文化礼品、国际化发展、文化保护和丝绸小镇建设等方面有不少亮点，但当前行业仍存在外贸形势不乐观、原料质量“短板”依旧凸显等问题。</p><p>杨永元表示，当前，我国许多沿海城市大量土地转化为城镇和工业开发区，年轻人从事桑蚕养殖积极性不高，种桑养蚕的数量开始逐渐萎缩。如何推进茧丝绸行业的技术进步，稳定茧丝绸原料基础，平衡茧、丝、绸产业链上下游利益，是今天摆在我国丝绸行业面前的一个课题。</p><p style=\"text-align: center; \" align=\"center\"><img src=\"http://118.178.95.106:8090/File/download?id=849818079721422848\" alt=\"640\" style=\"max-width:100%;\" class=\"\"><br></p><p>目前，在我国丝绸出口品类中，丝类和真丝绸缎在出口额中各占两成，丝绸制成品占比六成，分布相对均衡。但在杨永元看来，世界丝绸行业的生产格局正在发生变化，以意大利、日本等国为代表的高端丝绸产品生产向中国转移，以中国香港地区为代表的丝绸服装生产向内地转移。“世界要求中国不再只是提供中间产品，而是要提供终端商品，这为我国的丝绸行业带来了重大的挑战和机遇。”杨永元说。</p><p style=\"text-align: center; \"><img src=\"http://118.178.95.106:8090/File/download?id=849818210164277248\" alt=\"640\" style=\"max-width:100%;\"><br></p><p>日前发布的《茧丝绸行业“十三五”发展纲要》提出，未来五年，要形成10个以上具有国际影响的名企名品，提升中国丝绸在国际市场的话语权和知名度，努力打造中国茧丝绸产业链的国际竞争力。</p><p>杨永元认为，现代市场的多样化需求使得丝绸企业不得不思考如何获得长足发展，而这其中最重要的就是用文化引领丝绸企业树立品牌文化。</p><p>“如果我们在丝绸家纺、丝针织、头巾、领带、礼服、女装、混纺产品等方面都拥有知名品牌，形成多足鼎立，那么丝绸业的发展一定能再上一个台阶。”杨永元强调，在未来一段时间内，全力打造知名丝绸服装品牌将是行业发展的重要任务和目标。</p><p>杨永元说，2017年将加快调整丝绸产品结构，坚持科技创新驱动行业发展，以“一带一路”沿线国家为重点方向促进对外深层次合作，以传统丝绸高等院校为主加快人才培养，形成实用技能型、创新型、复合型等多层次的丝绸人才培育体系。</p>",
                "fileName": "640.webp",
                "id": "849818271552110592",
                "isEnable": true,
                "isIndexShow": true,
                "isInformationShow": true,
                "pic": "849817898040950784",
                "remark": "",
                "source": "丝集网",
                "summary": "中国丝绸协会杨永元会长谈丝绸产业发展",
                "sysInformationClassId": "800656422655229952",
                "sysInformationClassName": "行业动态",
                "title": "资讯 | 中国丝绸协会杨永元会长谈丝绸产业发展",
                "updateBy": "",
                "updateTime": null,
                "version": null
            },
            {
                "createBy": "813254863063351296",
                "createTime": 1491375008000,
                "detail": "<p>由隋入唐，中国古代服装发展到全盛时期，政治的稳定，经济的&nbsp;发达，生产和纺织技术的进步，对外交往的频繁等促使服饰空前繁荣，&nbsp;服装款式、色彩、图案等都呈现出前所未有的崭新局面，而这一时期的女子服饰，可谓中国服装中最为精彩的&nbsp;篇章，其冠服之丰美华丽，&nbsp;妆饰之奇异纷繁，都令人目不暇接。大唐二百余年的女子服饰形象，可主要分为襦裙服、男装、胡服三种配套服饰。</p><p style=\"text-align: center; \"><img src=\"http://118.178.95.106:8090/File/download?id=849513666754641920\" alt=\"640\" style=\"max-width:100%;\"><br></p><p><strong>襦裙服&nbsp;</strong></p><section><section><section><p>襦裙服系指唐代女子上穿短襦或衫，下着长裙，佩披帛，加半臂（即&nbsp;短袖）的传统装束。唐女襦裙装在接受外来服饰影响下，取其神而保留了自我的原形，于是襦裙装成为唐代乃至整个中国服装史中最为精彩而又动人的一种配套装束了。&nbsp;<br>襦，一般只长到腰，很短，是唐代女服的特点。与此相近的衫，却长至胯或更长。唐女的襦、衫等上衣是各个阶层的常服。元稹诗句“藕丝衫子藕丝裙”，张佑诗句“鸳鸯绣带抛何处，孔雀罗衫付阿谁”，欧阳炯诗句“红袖女郎相引去”。从这些诗句看，唐代女子着襦、衫已非常普遍，&nbsp;而且喜欢红，浅红或淡赭，浅绿等色，并加上“罗衫叶叶绣重重，金凤银鹅各一丛”的金银彩绣为饰，外观更是美不可言。</p></section></section></section><section>襦裙服系指唐代女子上穿短襦或衫，下着长裙，佩披帛，加半臂（即&nbsp;短袖）的传统装束。唐女襦裙装在接受外来服饰影响下，取其神而保留了自我的原形，于是襦裙装成为唐代乃至整个中国服装史中最为精彩而又动人的一种配套装束了。&nbsp;<br>襦，一般只长到腰，很短，是唐代女服的特点。与此相近的衫，却长至胯或更长。唐女的襦、衫等上衣是各个阶层的常服。元稹诗句“藕丝衫子藕丝裙”，张佑诗句“鸳鸯绣带抛何处，孔雀罗衫付阿谁”，欧阳炯诗句“红袖女郎相引去”。从这些诗句看，唐代女子着襦、衫已非常普遍，&nbsp;而且喜欢红，浅红或淡赭，浅绿等色，并加上“罗衫叶叶绣重重，金凤银鹅各一丛”的金银彩绣为饰，外观更是美不可言。</section><p>唐代裙色多彩，可以尽如人所好，多为深红、杏黄、绛紫、月青、青绿。其中尤以石榴色流行时间最长。李白有“眉欺杨柳叶，裙妒石榴花。”万楚五有“眉黛夺得萱草色，红裙妒杀石榴花。”其流行范围之广，从《燕京五月歌》中可见，“石榴花开街欲焚，蟠枝屈朵皆崩云，千门万户买不尽，剩将女儿染红裙。”石榴裙最大的特点，是裙束较高，上披短小襦衣，两者宽窄长短形成鲜明对比。这种上衣下裙的“唐装”，是对前代服装的继承、发展和完善。从整体效果看，上衣短小而裙长曳地，使体态显得苗条和修长。&nbsp;</p><p style=\"text-align: center; \"><img src=\"http://118.178.95.106:8090/File/download?id=849514138764836864\" alt=\"640\" style=\"max-width:100%;\"><br></p><p><strong>女着男装&nbsp;</strong></p><p>女着男装在中国长期封建社会中，是较为罕见的现象。《礼记&nbsp;内则》曾规定，“男女不通衣服。”尽管事实上不可能这么绝对，但是女子着男装，常会被认为是不守妇道。唐以前虽然在汉魏时也有男女服式差异较小的现象，但那不属于女着男装，只有在气氛非常宽松的唐代，女着男装才有可能蔚然成风，即使这样，还应将一部分起因归于游牧民族的影响。当时影响中原的外来服饰，绝大多数都是马上民族的服饰。那些粗犷的身架、英武的装束，以及矫健的马匹，对唐女着装意识产生一种渗透式的影响，同时创造出一种&nbsp;<br>适合女着男装的气氛。《旧唐书&nbsp;舆服志》载，“或有著丈夫衣服、靴、衫，而尊卑内外斯一贯矣”已明确记录下女着男装的情景。</p><p>新唐书&nbsp;五行志》记，&nbsp;“高宗尝内宴，太平公主紫衫玉带，皂罗折上巾，具纷砺七事，歌舞于帝前。帝与后笑曰‘女子不可为武官，何为此装束？’”虽说这太平公主此举有些恃宠撒娇，但也说明了唐初已经出现女着男装的倾向。女着男装的风气尤在大唐开元、天宝年间盛行。《中华古今注》记，“至天宝年中，士人之妻，著丈夫靴衫鞭帽，内外一体也。”《新唐书&nbsp;李石传》记，“吾闻禁中有金鸟锦袍二，昔玄宗幸温泉与杨贵妃衣之。”由此可以看出，当时女子仿制男装，穿着男装相当普遍。&nbsp;</p><p style=\"text-align: center; \"><img src=\"http://118.178.95.106:8090/File/download?id=849514354318508032\" alt=\"640\" style=\"max-width:100%;\"><br></p><p><strong>胡服</strong></p><p>初唐到盛唐间，北方游牧民族匈奴、契丹、回鹘与中原交往甚多，加之丝绸之路的骆驼商队络绎不绝，对唐代服饰影响极大。所谓胡人，是汉族人对北方民族的一种贬称，我们这里讲史，权且保留当时的称呼。随胡人而来的文化，特别是胡服---这种包含印度、波斯等很多民族成分在内的民族装束，令唐代妇女耳目一新。于是，一阵狂风般胡服热席卷中原诸城，其中尤以长安及洛阳等地为盛，其饰品也最具异邦色彩。元稹诗：“自从胡骑起烟尘，毛毳腥膻满地洛，女为胡妇学胡妆，伎进胡音务胡乐.....胡音胡骑与胡妆，五十年来竟纷泊。”&nbsp;唐玄宗酷爱胡舞胡乐，杨贵妃、安禄山均为胡舞能手，白居易《长恨歌》中的&nbsp;“霓裳羽衣舞”即是胡舞的一种。另有浑脱舞，枯枝舞，胡旋舞等对汉族音乐、舞蹈、服饰等艺术门类都有较大影响。</p><section><section><section><p>所记当时“臣妾人人学团转”的激动人心的场面也是可以想象到的。姚汝能《安禄山事迹》记，“天宝初，贵游士庶好衣胡帽，妇人则簪步摇，衣服之制度衿袖窄小。”关于女子着胡服的形象或见于石刻线画等古迹。较典型者，即为上戴浑脱帽，身着窄袖紧身翻领长袍，下着长裤，足登高腰靴。《舆服志》云，“中宗后有衣男子而靴如奚、契丹之服”当为此种装束。</p></section></section></section>",
                "fileName": "640.webp (1)",
                "id": "849514473201860608",
                "isEnable": true,
                "isIndexShow": true,
                "isInformationShow": true,
                "pic": "849514467820568576",
                "remark": "",
                "source": "丝集网",
                "summary": "丝集忆史 | 大唐二百余年的女子三种配套服饰",
                "sysInformationClassId": "800656422655229952",
                "sysInformationClassName": "行业动态",
                "title": "大唐二百余年的女子三种配套服饰",
                "updateBy": "",
                "updateTime": null,
                "version": null
            },
            {
                "createBy": "813254863063351296",
                "createTime": 1491026947000,
                "detail": "<section><section><section><p>“人要衣装，佛要金装”，该俗语明确阐释了衣服对人的重要影响，同时也说明了纺织业与生活有着密不可分的联系。</p><p><br></p><p>中国是世界上最早生产纺织品的国家之一。在西汉时期，张骞出使西域将丝绸制品带到西方，开辟了东西方交流的新纪元，因此这条出使之路被命名为“丝绸之路”。如今，国外随处可见Made in China的商品，中国被称为“世界工厂”，纺织工业也开始新的征程。</p><p><br></p><p>在快速增长的红利期过后，纺织业市场逐渐进入发展的瓶颈期，增长动力日渐匮乏。当下，我国纺织业的优势已然弱化，由于东南亚国家廉价劳动力的优势、欧洲等国家的文化优势，我国纺织业处在被挤压的状态，能否冲出重围，则需进行产业转型升级。</p><p><br></p></section></section></section><section><section><section><section><section><p><strong>&nbsp; 找准“痛点”</strong></p></section></section></section></section></section><section><section><section><p>​<br></p><p>凡是提到纺织业，大家脑海出现的画面便是众多纺织工人在机器前工作的场景。其实不然，廉价劳动力、世界工厂等符号早已不再是我国纺织工业的标签，取而代之的则是创新工厂、绿色环保的新纺织业。那么失去了廉价劳动力的优势，我国纺织业的核心竞争力是否还存在？<br><br>中国纺织工业联合会副会长孙淮滨在接受《经济》记者采访时表示，尽管我国的廉价劳动力优势已不存在，但我国纺织业在国际市场上的竞争力远不止廉价的劳动力。自国际金融危机以来，我国纺织业在国际市场的份额呈增长趋势，之前我国纺织业的优势体现在劳动力上，就目前而言，要从纺织业的整个产业链出发，往产业链的高端领域去拓展，在更高的层面上寻找新的增长点，参与国际竞争的新优势。<br><br>陕西省咸阳市新兴纺织工业园是国家发改委确定的首批全国老工业基地搬迁改造试点园区、商务部确定的第三批国家外贸转型升级示范基地和中国纺织工业联合会确定的全国纺织产业转移试点园区。该园区作为西北纺织行业的代表，为了提高园区的市场竞争力，咸阳市新兴纺织工业园党工委办公室副主任赵明华表示，虽然劳动力的成本逐年上升，纺织业发展进程步履维艰，但是可以突破旧的传统格局，从建成集研发、生产、销售为一体，在纺纱、印染、服装服饰加工、家纺制品和纺织新材料、新面料方面的完整产业链来进行实施规划，实现一条龙服务，向更高领域迈进。<br><br>棉花作为纺织业的基础上游产业，它的变化直接影响整个纺织产业链。孙淮滨告诉记者，棉花在我国市场化竞争中处于相对缓慢的领域，由于对棉花实行时而放储、时而收储的调配政策，对进口的棉花实行配额管制，超配额进口实行滑准税，导致棉花的市场化程度不高。反观整个纺织行业又完全市场化，时常会出现体制不对称，尤其棉花价格受到波动时，对我国纺织业会产生不利的影响。<br><br>棉价的波动会直接让纺织业进出口也面临严峻的形势。孙淮滨表示，由于受到国际金融危机的影响，其中包括金砖四国和东南亚地区的国家经济还未完全恢复，并且欧盟整体经济的不振，导致外需不足，恢复乏力，因此我国纺织业的出口形势面临挑战。在内销环节，增速也在放缓，尤其是实体店的销售受到网络零售的冲击。<br><br>Analysys易观发布的《中国B2C市场季度监测报告2016年第二季度》数据显示，2016年第二季度，中国B2C市场服装交易规模达2089.0亿元人民币，同比增长44.7%。第二度是春、夏服装换季时节，“4.19”、“5.20”、“6.18”等大型电商促销季，都带动了线上服装市场整体增长，天猫以77.1%的市场份额依然保持领先，京东以9.5%位居第二，唯品会以8.2%位居第三。<br><br>据悉，自2012年11月11日，天猫“双11”购物狂欢节拉开大幕，每年在该日，网上零售额呈快速递增状态。在今年，更是打破以往的交易额，开始仅6分58秒，天猫“双11”交易额已达到100亿元。<br><br>在临近“双11”购物狂欢节之前，记者在走访过程中发现，受到网络消费的冲击，很多百货商场、超市等实体店都开始了折扣活动的预热，其目的就是减少网络销售对实体店的冲击。<br><br><br></p></section></section></section><section><section><section><section><section><p><strong>克服“难点”</strong></p></section></section></section></section></section><section><section><section><br><p>我国本土服装品牌在受到多重因素影响而导致发展缓慢之时，国外的服装品牌看重国内庞大的消费市场，它们进军国内市场，造成国内服装品牌“雪上加霜”的尴尬局面。<br><br>以国外Zara、H&amp;M等标榜快时尚的品牌为主，它们抓住时下最流行的元素，主要吸引一批85后、90后的消费群体。快时尚又称快速时尚，其源自20世纪的欧洲，欧洲称之为“Fast Fashion”，而美国把它叫做“Speed to Maket ”。快时尚提供当下流行的款式和元素，以低价、款多、量少为特点，激发消费者的兴趣，最大限度地满足消费者需求。<br><br>孙淮滨表示，国外快时尚的品牌对我国本土服装品牌有一定的冲击，但这些品牌的供应商很多来自于国内的企业，因此它们进入中国市场也带动了一批前端的服装供应商。<br><br>据赵明华介绍，为引导入园企业走品牌兴企、品牌创新之路，新兴纺织工业园区制定出台一系列扶持政策，促进纺织传统产业转型升级、品牌建设，建立了奖励体系，加大了对纺织企业的扶持力度。<br><br>品牌是一个企业的灵魂，品牌的建设对抵御外来品牌具有一定的作用。国外的众多服装品牌能够在国内市场站稳脚跟，主要依赖于对其品种的开发和品质的严格要求，品牌认可度高，从而获得消费者的青睐。据不完全统计，Zara的400多位设计师每年会推出超过12000-20000款设计，平均每周会换两次新货，增加品种供消费者选择。国外的服装品牌发展如火如荼，国内服装企业能否改变一成不变的现状，取决于对品牌的建设。<br><br>今年，国务院办公厅发布《关于开展消费品工业“三品”专项行动营造良好市场环境的若干意见》，部署开展消费品工业增品种、提品质、创品牌“三品”专项行动。在孙淮滨看来，“三品”战略的实施对“十三五”时期纺织工业的发展发挥了引导推进的作用，通过丰富品种来满足市场的需求，树立质量为王的理念，品牌则需前两者共同来体现。还需有打造全产业链品牌的概念，从纺纱、制造、印染到终端产品都应有品牌建设。<br><br>要打破国外快时尚品牌对我国纺织服装业的冲击，就需通过打造品牌来突出中国特色。纺织业对国民经济作出贡献的同时，也是一个高污染的行业，在国内外服装品牌发展兴盛时期，该问题尤为明显。未来发展纺织工业，解决废水、废气、废渣的排放迫在眉睫。孙淮滨充满信心地表示，在纺织行业中对环境产生污染的环节主要是印染产业，而该产业作为纺织行业提升产品附加值乃至整个纺织产业链中关键环节，为了攻克此难题，将会加大对排污末端的处理，尽可能地做到少水、无水印染，通过原料无害化、生产清洁化、能源低碳化的标准来建设绿色工厂。<br><br><br></p></section></section></section><section><section><section><section><section><p><strong>创新“亮点”</strong></p></section></section></section></section></section><section><section><section><p><br>纺织行业中的服装产业正在突破对服装最初的定义，从舒适性、保暖性来进行着重突破，衣服不再简单地只是蔽体御寒，还能监测身体，为人们的健康保驾护航。美国知名牛仔品牌李维斯（Levi's）推出了音乐外套，它的能量来源主要依靠太阳能、风能、温度和物理能源等可持续能源，外套的布料由丝质透明硬纱制成，音乐播放功能则由一个全布料电容键盘控制了，人们只需轻轻一按，衣服就会开始播放音乐。澳大利亚的Bionic Bra借助智能布料、3D打印和仿生肌肉等多种黑科技，就能够准确判断出人体的移动状态，自动对内衣的松紧度作出调整。<br><br>人们对智能产品的需求不止于智能电器那么简单，而智能服装或成下一个新风口。用科技定义时尚，国内以柒牌为代表，一扫对传统男装的认知，推出多功能智能夹克，该夹克拥有精准记录运动数据、遥控拍照、睡眠监测以及清晨唤醒等功能。<br><br>服装产业的智能化是满足消费者的需求，孙淮滨认为，不仅是终端产品的智能化，还要在装备、生产过程和管理服务加大智能化，例如让机器人解放劳动力等。<br><br>纺织业作为国民经济的传统支柱，经历了发展的巅峰时期，也遭遇过产业的低谷期，如今，纺织业重振旗鼓，迎来新的转折点。</p><p><a target=\"_blank\">资讯来源——中国纺织经济信息网</a>&nbsp;<br></p><br><!--EndFragment--></section></section></section><p><br></p>",
                "fileName": "W020120508279428812836",
                "id": "848054599976747008",
                "isEnable": true,
                "isIndexShow": true,
                "isInformationShow": true,
                "pic": "848054949274189824",
                "remark": "",
                "source": "丝集网",
                "summary": "纺织业：颠覆传统，焕发活力",
                "sysInformationClassId": "800656422655229952",
                "sysInformationClassName": "行业动态",
                "title": "资讯 | 纺织业：颠覆传统，焕发活力",
                "updateBy": "813254863063351296",
                "updateTime": null,
                "version": null
            },
            {
                "createBy": "813254863063351296",
                "createTime": 1490863196000,
                "detail": "<p style=\"text-align: center;\">伴随着柬埔寨历史悠久的丝绸产业的快速下降，柬埔寨政府正在寻找新的发展战略，以促使当地的养蚕业重新焕发活力和推动丝绸产业的现代化、可持续发展。柬埔寨国家商务部秘书、柬埔寨丝绸行业发展促进委员会主席Mao Thora说：一项由政府主导的重振国家丝绸工业战略将要计划寻求国际捐助者和投资者的资助支持。</p><p style=\"text-align: center;\">战略旨在生产高附加值的丝绸产品，是为了给偏远地区尤其是妇女提供工作机会，以减少贫穷。Mao Thora说：“我们想要找到投资合伙人，因为生产质量差，所以目前丝绸出口很少并且是家庭作坊的规模”。委员会已经起草了这份战略协议，并得到了国际贸易中心（ITC）的商务技术部门和世界银行集团的部分支持，目前尚未有预算和议程发布出来。</p><p style=\"text-align: center; \"><img src=\"http://118.178.95.106:8090/File/download?id=847367634134499328\" alt=\"640\" style=\"max-width:100%;\"><br></p><p style=\"text-align: center;\">柬埔寨近年来达利发展民族工业，其中就包括柬丝制造业。在柬埔寨农村，许多妇女在农闲时养蚕抽丝，织锦裁衣，以补贴家用。柬政府还创办了一些乡间学校，教授农村青年学会柬丝的制作手艺。</p><p style=\"text-align: center;\">然而，国际贸易中心自从2003年就已经与柬埔寨的丝绸行业密切合作，帮助当地的生产商进入国际市场，并确认了它将作为首个捐助者。蒋学军是国际贸易中心的亚太部主任，他表示他的部门会优先考虑柬埔寨的丝绸部门，因为柬埔寨的2万名织工里大部分都是妇女。他说“另一个原因是，基于很多研究，我们已经得出结论：丝绸是一个很具有出口潜力的产品”“我们已经与很多丝绸公司建立了密切的合作，但是只有私营企业间才会产生贸易交往，当然这要求更强有力的支持和政府的承诺”。</p><p style=\"text-align: center;\">　　政府支持和国际捐赠是吴哥工匠成功的关键。在暹粒省是由中国最大的丝绸生产商在操控一个丝绸农场和多个作坊。项目早期旨在改善丝绸育种技术、设计培训计划、鼓励地方种植桑树、解决蚕的食物来源和促进贸易。“最近的工作目标是建立研究最适合柬埔寨的土壤和气候条件的繁殖蚕种这样的研究中心“吴哥工匠秘书长 Vidano Kernem说。他说柬埔寨的丝绸产业的未来发展取决于种植足够的桑树喂蚕和生产高质量的丝绸以及生产商的丝绸发展创意设计，方能吸引更多本地和国际客户。</p><p style=\"text-align: center;\">“丝绸行业的未来发展将部分取决于价值链的每个环节的可持续性,”Kernem说。”成功研究可产生高收益的丝线的蚕种就像柬埔寨饲养者的鸡蛋，让柬埔寨人都可利用这种蚕种是至关重要的，这样才能确保柬埔寨丝线生产者在成本和质量上的竞争优势,”他补充道。柬埔寨目前每年进口300吨丝绸来满足市场需求，最高国家经济委员会的高级顾问Mey Kalyan认为当地其实有这个生产能力。“在柬埔寨可以发展丝绸产业和并且是有益的……对女性有利,”他说。他又补充说：“他估计当地一年可生产大约3或4吨产品，由于缺乏官方统计数据，政府没有意识到当地产业的价值。”</p><p style=\"text-align: center; \"><img src=\"http://118.178.95.106:8090/File/download?id=847367733858271232\" alt=\"640\" style=\"max-width:100%;\" class=\"\"><br></p>",
                "fileName": "640.webp",
                "id": "847367780884807680",
                "isEnable": true,
                "isIndexShow": true,
                "isInformationShow": true,
                "pic": "847367557047386112",
                "remark": "",
                "source": "丝集网",
                "summary": "柬埔寨：计划重建丝绸部门",
                "sysInformationClassId": "800656422655229952",
                "sysInformationClassName": "行业动态",
                "title": "资讯 | 柬埔寨：计划重建丝绸部门",
                "updateBy": "",
                "updateTime": null,
                "version": null
            },
            {
                "createBy": "813254863063351296",
                "createTime": 1490685456000,
                "detail": "<p style=\"text-align: center;\">有别于一条蚕所吐的丝叫蚕丝或茧丝，在缫丝机上将多个蚕茧的丝抱合胶着在一起缫制而成的长丝称为生丝，生丝又被称为厂丝或白厂丝。生丝经过精炼脱胶后便为熟丝。</p><p style=\"text-align: center;\">生丝和熟丝的区别在于是否脱胶，生丝通过在肥皂溶液中煮沸除去油脂，经缫丝，复摇，整理、成为熟丝，生丝是丝线或织物生产用的原料，是用于织绸缎的。</p><p style=\"text-align: center;\">熟丝是用来做蚕丝被或者棉衣棉裤，熟丝俗称为丝绵。生丝是可以染色，但是容易脱色，熟丝沾染颜色的能力就比较好，不会产生变色脱色以及不均匀的现象。而如果对用丝有特殊要求，人们会选用熟丝。比如缂丝这种传统手工织物，由于它对丝线染色要求很高，它的经线选用生丝，用于表现织物色彩的纬线则选用彩色的熟丝。</p><p style=\"text-align: center; \"><img src=\"http://118.178.95.106:8090/File/download?id=846622247165624320\" alt=\"11\" style=\"max-width:100%;\" class=\"\"><br></p><p style=\"text-align: center;\"><br></p>",
                "fileName": "12",
                "id": "846622281915432960",
                "isEnable": true,
                "isIndexShow": true,
                "isInformationShow": true,
                "pic": "846623029541732352",
                "remark": "",
                "source": "丝集网",
                "summary": "什么是生丝，什么又是熟丝？",
                "sysInformationClassId": "800656422655229952",
                "sysInformationClassName": "行业动态",
                "title": "常识 | 什么是生丝，什么又是熟丝？",
                "updateBy": "813254863063351296",
                "updateTime": null,
                "version": null
            }
        ],
        "navigatePages": 8,
        "navigatepageNums": [
            1,
            2,
            3,
            4,
            5,
            6,
            7,
            8
        ],
        "nextPage": 2,
        "orderBy": "",
        "pageNum": 1,
        "pageSize": 10,
        "pages": 8,
        "prePage": 0,
        "size": 10,
        "startRow": 1,
        "total": 75
    },
    "httpCode": 200,
    "msg": "OK",
    "timestamp": 1492045184304
}